$date
        2020-Jan-07 13:08:57
$end
$version
        Vivado v2017.4 (64-bit)
$end
$timescale
        1ps
$end
$scope module dut $end
$var reg 64 " \emulators[0].emulator/frame_out[0] [63:0] $end
$var reg 64 b \emulators[0].emulator/frame_out[1] [63:0] $end
$var reg 64 D" \emulators[0].emulator/frame_out[2] [63:0] $end
$var reg 64 &# \emulators[0].emulator/frame_out[3] [63:0] $end
$var reg 1 f# \emulators[0].emulator/trig_out $end
$var reg 1 g# \emulators[0].emulator/<const0>_9 $end
$var reg 1 h# \emulators[0].emulator/<const0>_10 $end
$var reg 1 i# \emulators[0].emulator/<const0>_11 $end
$var reg 1 j# \emulators[0].emulator/<const0> $end
$var reg 1 k# \emulators[0].emulator/ila_data_read_o $end
$var reg 1 l# _TRIGGER $end
$var reg 1 m# _WINDOW $end
$var reg 1 n# _GAP $end
$upscope $end
$enddefinitions $end
#0
$dumpvars
b1011010000000001111011000000000000000000011110100000000000000000 "
b1011010000000001111001000000000000000000011110000000000000000000 b
b1011010000000001110111000000000000000000011101100000000000000000 D"
b1011010000000010000010000000000000000000100010000000000000000000 &#
1f#
0g#
0h#
0i#
0j#
0k#
1l#
1m#
0n#
$end
#2
0f#
#50
b1111000000000000000000000000000000000000000000000000000000000 "
b1111000000000000000000000000000000000000000000000000000000000 b
b1111000000000000000000000000000000000000000000000000000000000 D"
b1111000000000000000000000000000000000000000000000000000000000 &#
#114
b10010011001010111101011010010010010101101011111111010010101010 "
b11110011011010011010010001111011010100100110110100011110100111 b
b11101010101111111101100110000101100000111100110010001101010001 D"
b1101001011110011101010101100101010111111111101101010000101101 &#
#178
b1010000000100111001110011101110101010111111110100101001110011000 "
b110100000110110000111111111000011010000011011000011111111000 b
b10100111011010100101011111111111100000110101010100101010111110 D"
b10011101001001111111111111101110010010100101001001111000001101 &#
#242
b1000111101000111100111010101000111001001111001110100001000101 "
b111110000110100011100111111011010111111111111111111110001001 b
b101011110110111000011100011001011111111111111011011100001110101 D"
b11110100001000111001011101010111111111111110100001000111010010 &#
#306
b1011010000000001111011000000000000000000011110100000000000000000 "
b1011010000000001111001000000000000000000011110000000000000000000 b
b1011010000000001110111000000000000000000011101100000000000000000 D"
b1011010000000010000010000000000000000000100010000000000000000000 &#
#434
b111010110110101100110111111111111001010100101101110111011001011 "
b111100001110000110100001011110011101001101101010011111111110001 b
b111100000101011010000110101111111110000010101101010111010001111 D"
b10101111011010100110100010001111111111011010100110100110100101 &#
#498
b110000001011001010111101110010000001010000111100001010001000101 "
b100010101011101000111111110101001010001011101010111111111101110 b
b101110001010110110000111111110000011000010101101000111101010010 D"
b111111111101000110101011010010101111001111100101011000010111101 &#
#562
b111010101100000111010001111111111010110100000110110100011110101 "
b111110100101010011100010110111111111111110100101010011011000101 b
b111000110111100101111111111111111110101101000111000011101000111 D"
b110110101001010111111111111000010100010001101010101111010100100 &#
#626
b101100110101101011111111000011101011001000101011110011101001011 "
b10000011000101001111011111100110011110110010101111111100001110 b
b101101111010111111111111111100100110100110011000111111111101100 D"
b101000001110101001011110010101001100111001001111000101100011001 &#
#690
b1011010000000001111011000000000000000000011110100000000000000000 "
b1011010000000001111001000000000000000000011110000000000000000000 b
b1011010000000001110111000000000000000000011101100000000000000000 D"
b1011010000000010000010000000000000000000100010000000000000000000 &#
#818
b1111000000000000000000000000000000000000000000000000000000000 "
b1111000000000000000000000000000000000000000000000000000000000 b
b1111000000000000000000000000000000000000000000000000000000000 D"
b1111000000000000000000000000000000000000000000000000000000000 &#
