$date
        2020-Jan-07 13:08:38
$end
$version
        Vivado v2017.4 (64-bit)
$end
$timescale
        1ps
$end
$scope module dut $end
$var reg 1 " \emulators[0].emulator/ttc_top/datain $end
$var reg 16 # \emulators[0].emulator/ttc_top/validint [15:0] $end
$var reg 1 3 \emulators[0].emulator/ttc_top/valid $end
$var reg 16 4 \emulators[0].emulator/ttc_top/data [15:0] $end
$var reg 1 D _TRIGGER $end
$var reg 1 E _WINDOW $end
$var reg 1 F _GAP $end
$upscope $end
$enddefinitions $end
