memory_initialization_radix=16;
memory_initialization_vector=
802739dd57fa5398
3d08e5d5fffa11d2
57b70e32fffdb875
0f868e7ed7ffff89
11e8f3aa393ce845
2bda9a23ff6a69a5
782b435ff056ae8f
7870d0bce9b53ff1
75b59bffca96eecb
7fe8d5a579f2b0bd
5c56c3fc18568f52
455d1fea51757fee
60595ee40a1e1445
6d4afff0a2355ea4
71bcbffff5a38747
7d2a716fffd2a6c5
7560e8ffd68368f5
50752f2a67278b19
5bd7fff934cc7fec
20c53df99ecaff0e
59ad7f875915e74b
1a5e755957fed42d
3aaff66160f32351
3cda691ed49b47a7
24caf5a495aff4aa
2749fffb92949e0d
29da95ffe0d54abe
0d06c3fe1a0d87f8;