memory_initialization_radix=16;
memory_initialization_vector=
8010000100100002
0010000300100004
0010000500100006
0010000700100008
0020000100200002
0020000300200004
0020000500200006
0020000700200008
0030000100300002
0030000300300004
0030000500300006
0030000700300008
0040000100400002
0040000300400004
0040000500400006
0040000700400008
0050000100500002
0050000300500004
0050000500500006
005E0F07005E0F08;